%!PS-Adobe-3.0 EPSF-3.0
%%Title: EAGLE Drawing /home/salvix/Dev/vcc_dev/5v_zener/5v_zener_power.brd
%%Creator: EAGLE
%%Pages: 1
%%BoundingBox: 0 0 58 88
%%EndComments

% Coordinate transfer:

/EU { 254 div 0.072 mul } def
/inch { 72 mul } def

% Linestyle:

1 setlinecap
1 setlinejoin

% Drawing functions:

/l {  % draw a line
   /lw exch def
   /y2 exch def
   /x2 exch def
   /y1 exch def
   /x1 exch def
   newpath
   x1 EU y1 EU moveto
   x2 EU y2 EU lineto
   lw EU setlinewidth
   stroke
   } def

/h {  % draw a hole
   /d  exch def
   /y  exch def
   /x  exch def
   d 0 gt {
     newpath
     x EU y EU d 2 div EU 0 360 arc
     currentgray dup
     1 exch sub setgray
     fill
     setgray
     } if
   } def

/b {  % draw a bar
   /an exch def
   /y2 exch def
   /x2 exch def
   /y1 exch def
   /x1 exch def
   /w2 x2 x1 sub 2 div EU def
   /h2 y2 y1 sub 2 div EU def
   gsave
   x1 x2 add 2 div EU y1 y2 add 2 div EU translate
   an rotate
   newpath
   w2     h2     moveto
   w2 neg h2     lineto
   w2 neg h2 neg lineto
   w2     h2 neg lineto
   closepath
   fill
   grestore
   } def

/c {  % draw a circle
   /lw exch def
   /rd exch def
   /y  exch def
   /x  exch def
   newpath
   lw EU setlinewidth
   x EU y EU rd EU 0 360 arc
   stroke
   } def

/a {  % draw an arc
   /lc exch def
   /ae exch def
   /as exch def
   /lw exch def
   /rd exch def
   /y  exch def
   /x  exch def
   lw rd 2 mul gt {
     /rd rd lw 2 div add 2 div def
     /lw rd 2 mul def
     } if
   currentlinecap currentlinejoin
   lc setlinecap 0 setlinejoin
   newpath
   lw EU setlinewidth
   x EU y EU rd EU as ae arc
   stroke
   setlinejoin setlinecap
   } def

/p {  % draw a pie
   /d exch def
   /y exch def
   /x exch def
   newpath
   x EU y EU d 2 div EU 0 360 arc
   fill
   } def

/edge { 0.20710678119 mul } def

/o {  % draw an octagon
   /an exch def
   /dy exch def
   /dx exch def
   /y  exch def
   /x  exch def
   gsave
   x EU y EU translate
   an dx dy lt { 90 add /dx dy /dy dx def def } if rotate
   newpath
      0 dx 2 div sub EU                    0 dy edge  add EU moveto
      0 dx dy sub 2 div sub dy edge sub EU 0 dy 2 div add EU lineto
      0 dx dy sub 2 div add dy edge add EU 0 dy 2 div add EU lineto
      0 dx 2 div add EU                    0 dy edge  add EU lineto
      0 dx 2 div add EU                    0 dy edge  sub EU lineto
      0 dx dy sub 2 div add dy edge add EU 0 dy 2 div sub EU lineto
      0 dx dy sub 2 div sub dy edge sub EU 0 dy 2 div sub EU lineto
      0 dx 2 div sub EU                    0 dy edge  sub EU lineto
   closepath
   fill
   grestore
   } def

12544 13056 190344 13056 0 l
190344 13056 190344 292456 0 l
190344 292456 12544 292456 0 l
12544 292456 12544 13056 0 l
25244 279756 3000 0 c
88744 146660 88744 133452 13208 l
88744 45060 88744 31852 13208 l
152244 152756 13208 13208 180.0 o
126844 152756 13208 13208 180.0 o
126844 114656 13208 13208 0.0 o
126844 38456 13208 13208 0.0 o
45564 38456 30324 38456 15240 l
45564 63856 30324 63856 15240 l
157324 63856 172564 63856 15240 l
157324 38456 172564 38456 15240 l
37944 89256 13208 13208 0.0 o
37944 165456 13208 13208 0.0 o
63154 219241 76234 232321 0.0 b
94904 219241 107984 232321 0.0 b
126654 219241 139734 232321 0.0 b
126654 250991 139734 264071 0.0 b
94904 250991 107984 264071 0.0 b
63154 250991 76234 264071 0.0 b
126844 114656 126844 152756 10160 l
88744 38456 126844 38456 10160 l
37944 38456 88744 38456 10160 l
126844 38456 164944 38456 10160 l
37944 165456 50644 178156 10160 l
50644 178156 101444 228956 10160 l
101444 228956 101444 225781 10160 l
50644 178156 88744 140056 10160 l
37944 63856 37944 89256 10160 l
139544 178156 139544 228956 10160 l
152244 165456 139544 178156 10160 l
152244 152756 152244 165456 10160 l
139544 228956 133194 225781 10160 l
164944 63856 164944 140056 10160 l
164944 140056 152244 152756 10160 l
