%!PS-Adobe-3.0 EPSF-3.0
%%Title: EAGLE Drawing /home/salvix/Dev/vcc_dev/5v_zener/5v_zener_power.brd
%%Creator: EAGLE
%%Pages: 1
%%BoundingBox: 0 0 58 88
%%EndComments

% Coordinate transfer:

/EU { 254 div 0.072 mul } def
/inch { 72 mul } def

% Linestyle:

1 setlinecap
1 setlinejoin

% Drawing functions:

/l {  % draw a line
   /lw exch def
   /y2 exch def
   /x2 exch def
   /y1 exch def
   /x1 exch def
   newpath
   x1 EU y1 EU moveto
   x2 EU y2 EU lineto
   lw EU setlinewidth
   stroke
   } def

/h {  % draw a hole
   /d  exch def
   /y  exch def
   /x  exch def
   d 0 gt {
     newpath
     x EU y EU d 2 div EU 0 360 arc
     currentgray dup
     1 exch sub setgray
     fill
     setgray
     } if
   } def

/b {  % draw a bar
   /an exch def
   /y2 exch def
   /x2 exch def
   /y1 exch def
   /x1 exch def
   /w2 x2 x1 sub 2 div EU def
   /h2 y2 y1 sub 2 div EU def
   gsave
   x1 x2 add 2 div EU y1 y2 add 2 div EU translate
   an rotate
   newpath
   w2     h2     moveto
   w2 neg h2     lineto
   w2 neg h2 neg lineto
   w2     h2 neg lineto
   closepath
   fill
   grestore
   } def

/c {  % draw a circle
   /lw exch def
   /rd exch def
   /y  exch def
   /x  exch def
   newpath
   lw EU setlinewidth
   x EU y EU rd EU 0 360 arc
   stroke
   } def

/a {  % draw an arc
   /lc exch def
   /ae exch def
   /as exch def
   /lw exch def
   /rd exch def
   /y  exch def
   /x  exch def
   lw rd 2 mul gt {
     /rd rd lw 2 div add 2 div def
     /lw rd 2 mul def
     } if
   currentlinecap currentlinejoin
   lc setlinecap 0 setlinejoin
   newpath
   lw EU setlinewidth
   x EU y EU rd EU as ae arc
   stroke
   setlinejoin setlinecap
   } def

/p {  % draw a pie
   /d exch def
   /y exch def
   /x exch def
   newpath
   x EU y EU d 2 div EU 0 360 arc
   fill
   } def

/edge { 0.20710678119 mul } def

/o {  % draw an octagon
   /an exch def
   /dy exch def
   /dx exch def
   /y  exch def
   /x  exch def
   gsave
   x EU y EU translate
   an dx dy lt { 90 add /dx dy /dy dx def def } if rotate
   newpath
      0 dx 2 div sub EU                    0 dy edge  add EU moveto
      0 dx dy sub 2 div sub dy edge sub EU 0 dy 2 div add EU lineto
      0 dx dy sub 2 div add dy edge add EU 0 dy 2 div add EU lineto
      0 dx 2 div add EU                    0 dy edge  add EU lineto
      0 dx 2 div add EU                    0 dy edge  sub EU lineto
      0 dx dy sub 2 div add dy edge add EU 0 dy 2 div sub EU lineto
      0 dx dy sub 2 div sub dy edge sub EU 0 dy 2 div sub EU lineto
      0 dx 2 div sub EU                    0 dy edge  sub EU lineto
   closepath
   fill
   grestore
   } def

190464 13056 12664 13056 0 l
12664 13056 12664 292456 0 l
12664 292456 190464 292456 0 l
190464 292456 190464 13056 0 l
30952 189764 25529 195187 1524 l
25529 195187 25529 178918 1524 l
30952 178918 20106 178918 1524 l
183352 181629 183352 192476 1524 l
183352 192476 180641 195187 1524 l
180641 195187 175218 195187 1524 l
175218 195187 172506 192476 1524 l
172506 192476 172506 181629 1524 l
172506 181629 175218 178918 1524 l
175218 178918 180641 178918 1524 l
180641 178918 183352 181629 1524 l
183352 181629 172506 192476 1524 l
50002 98152 39156 98152 1524 l
44579 103576 44579 92729 1524 l
22785 106287 33631 106287 1524 l
33631 106287 33631 98152 1524 l
33631 98152 28208 100864 1524 l
28208 100864 25497 100864 1524 l
25497 100864 22785 98152 1524 l
22785 98152 22785 92729 1524 l
22785 92729 25497 90018 1524 l
25497 90018 30920 90018 1524 l
30920 90018 33631 92729 1524 l
177764 279756 3000 0 c
114264 146660 114264 133452 13208 l
114264 45060 114264 31852 13208 l
111724 95606 116804 115926 270.0 b
114264 38456 114264 47346 5080 l
114264 140056 114264 131166 5080 l
104739 54331 123789 59411 270.0 b
104739 119101 123789 124181 270.0 b
114264 95606 114264 89256 1524 l
107914 79096 120614 79096 1524 l
120614 79096 114264 89256 1524 l
114264 89256 114264 74016 1524 l
114264 89256 107914 79096 1524 l
114264 89256 120614 89256 1524 l
107914 86716 107914 89256 1524 l
107914 89256 114264 89256 1524 l
106644 68936 2540 1524 180.00 270.00 1 a
106644 109576 2540 1524 90.00 180.00 1 a
121884 109576 2540 1524 0.00 90.00 1 a
121884 68936 2540 1524 270.00 360.00 1 a
106644 66396 121884 66396 1524 l
106644 112116 121884 112116 1524 l
104104 109576 104104 68936 1524 l
124424 109576 124424 68936 1524 l
50764 152756 13208 13208 0.0 o
76164 152756 13208 13208 0.0 o
63464 152756 25400 1524 c
88864 171806 88864 133706 2032 l
63464 152756 31750 2540 36.87 323.13 1 a
63464 152756 11430 1524 180.00 270.00 1 a
63464 152756 11430 1524 0.00 90.00 1 a
63464 152756 16510 1524 180.00 270.00 1 a
63464 152756 16510 1524 0.00 90.00 1 a
63464 152756 21590 1524 180.00 270.00 1 a
63464 152756 21590 1524 0.00 90.00 1 a
76164 114656 13208 13208 0.0 o
76164 38456 13208 13208 0.0 o
76164 38456 76164 47346 5080 l
76164 114656 76164 105766 5080 l
68544 99416 2540 1524 90.00 180.00 1 a
83784 99416 2540 1524 0.00 90.00 1 a
83784 53696 2540 1524 270.00 360.00 1 a
68544 53696 2540 1524 180.00 270.00 1 a
83784 101956 68544 101956 1524 l
66004 99416 66004 95606 1524 l
67274 94336 66004 95606 1524 l
86324 99416 86324 95606 1524 l
85054 94336 86324 95606 1524 l
67274 58776 66004 57506 1524 l
67274 58776 67274 94336 1524 l
85054 58776 86324 57506 1524 l
85054 58776 85054 94336 1524 l
66004 53696 66004 57506 1524 l
86324 53696 86324 57506 1524 l
83784 51156 68544 51156 1524 l
74259 46711 78069 51791 270.0 b
74259 101321 78069 106401 270.0 b
157444 38456 172684 38456 15240 l
177764 32106 177764 44806 1524 l
177764 44806 171414 51156 1524 l
171414 51156 158714 51156 1524 l
158714 51156 152364 44806 1524 l
171414 25756 158714 25756 1524 l
177764 32106 171414 25756 1524 l
158714 25756 152364 32106 1524 l
152364 44806 152364 32106 1524 l
162524 35916 167604 40996 90.0 b
157444 63856 172684 63856 15240 l
171414 51156 177764 57506 1524 l
177764 57506 177764 70206 1524 l
177764 70206 171414 76556 1524 l
171414 76556 158714 76556 1524 l
158714 76556 152364 70206 1524 l
152364 70206 152364 57506 1524 l
152364 57506 158714 51156 1524 l
162524 61316 167604 66396 90.0 b
45684 63856 30444 63856 15240 l
25364 70206 25364 57506 1524 l
25364 57506 31714 51156 1524 l
31714 51156 44414 51156 1524 l
44414 51156 50764 57506 1524 l
31714 76556 44414 76556 1524 l
25364 70206 31714 76556 1524 l
44414 76556 50764 70206 1524 l
50764 57506 50764 70206 1524 l
35524 61316 40604 66396 270.0 b
45684 38456 30444 38456 15240 l
31714 51156 25364 44806 1524 l
25364 44806 25364 32106 1524 l
25364 32106 31714 25756 1524 l
31714 25756 44414 25756 1524 l
44414 25756 50764 32106 1524 l
50764 32106 50764 44806 1524 l
50764 44806 44414 51156 1524 l
35524 35916 40604 40996 270.0 b
165064 89256 13208 13208 0.0 o
165064 165456 13208 13208 0.0 o
165064 165456 165064 156566 5080 l
165064 89256 165064 98146 5080 l
172684 104496 2540 1524 270.00 360.00 1 a
157444 104496 2540 1524 180.00 270.00 1 a
157444 150216 2540 1524 90.00 180.00 1 a
172684 150216 2540 1524 0.00 90.00 1 a
157444 101956 172684 101956 1524 l
175224 104496 175224 108306 1524 l
173954 109576 175224 108306 1524 l
154904 104496 154904 108306 1524 l
156174 109576 154904 108306 1524 l
173954 145136 175224 146406 1524 l
173954 145136 173954 109576 1524 l
156174 145136 154904 146406 1524 l
156174 145136 156174 109576 1524 l
175224 150216 175224 146406 1524 l
154904 150216 154904 146406 1524 l
157444 152756 172684 152756 1524 l
163159 152121 166969 157201 90.0 b
163159 97511 166969 102591 90.0 b
126774 219241 139854 232321 180.0 b
95024 219241 108104 232321 180.0 b
63274 219241 76354 232321 180.0 b
63274 250991 76354 264071 180.0 b
95024 250991 108104 264071 180.0 b
126774 250991 139854 264071 180.0 b
38064 197206 38064 286106 1270 l
38064 286106 165064 286106 1270 l
165064 286106 165064 197206 1270 l
165064 197206 38064 197206 1270 l
