%!PS-Adobe-3.0 EPSF-3.0
%%Title: EAGLE Drawing /home/salvix/Dev/vcc_dev/5v_power/5v_power.brd
%%Creator: EAGLE
%%Pages: 1
%%BoundingBox: 0 0 153 157
%%EndComments

% Coordinate transfer:

/EU { 254 div 0.072 mul } def
/inch { 72 mul } def

% Linestyle:

1 setlinecap
1 setlinejoin

% Drawing functions:

/l {  % draw a line
   /lw exch def
   /y2 exch def
   /x2 exch def
   /y1 exch def
   /x1 exch def
   newpath
   x1 EU y1 EU moveto
   x2 EU y2 EU lineto
   lw EU setlinewidth
   stroke
   } def

/h {  % draw a hole
   /d  exch def
   /y  exch def
   /x  exch def
   d 0 gt {
     newpath
     x EU y EU d 2 div EU 0 360 arc
     currentgray dup
     1 exch sub setgray
     fill
     setgray
     } if
   } def

/b {  % draw a bar
   /an exch def
   /y2 exch def
   /x2 exch def
   /y1 exch def
   /x1 exch def
   /w2 x2 x1 sub 2 div EU def
   /h2 y2 y1 sub 2 div EU def
   gsave
   x1 x2 add 2 div EU y1 y2 add 2 div EU translate
   an rotate
   newpath
   w2     h2     moveto
   w2 neg h2     lineto
   w2 neg h2 neg lineto
   w2     h2 neg lineto
   closepath
   fill
   grestore
   } def

/c {  % draw a circle
   /lw exch def
   /rd exch def
   /y  exch def
   /x  exch def
   newpath
   lw EU setlinewidth
   x EU y EU rd EU 0 360 arc
   stroke
   } def

/a {  % draw an arc
   /lc exch def
   /ae exch def
   /as exch def
   /lw exch def
   /rd exch def
   /y  exch def
   /x  exch def
   lw rd 2 mul gt {
     /rd rd lw 2 div add 2 div def
     /lw rd 2 mul def
     } if
   currentlinecap currentlinejoin
   lc setlinecap 0 setlinejoin
   newpath
   lw EU setlinewidth
   x EU y EU rd EU as ae arc
   stroke
   setlinejoin setlinecap
   } def

/p {  % draw a pie
   /d exch def
   /y exch def
   /x exch def
   newpath
   x EU y EU d 2 div EU 0 360 arc
   fill
   } def

/edge { 0.20710678119 mul } def

/o {  % draw an octagon
   /an exch def
   /dy exch def
   /dx exch def
   /y  exch def
   /x  exch def
   gsave
   x EU y EU translate
   an dx dy lt { 90 add /dx dy /dy dx def def } if rotate
   newpath
      0 dx 2 div sub EU                    0 dy edge  add EU moveto
      0 dx dy sub 2 div sub dy edge sub EU 0 dy 2 div add EU lineto
      0 dx dy sub 2 div add dy edge add EU 0 dy 2 div add EU lineto
      0 dx 2 div add EU                    0 dy edge  add EU lineto
      0 dx 2 div add EU                    0 dy edge  sub EU lineto
      0 dx dy sub 2 div add dy edge add EU 0 dy 2 div sub EU lineto
      0 dx dy sub 2 div sub dy edge sub EU 0 dy 2 div sub EU lineto
      0 dx 2 div sub EU                    0 dy edge  sub EU lineto
   closepath
   fill
   grestore
   } def

15360 15360 523360 15360 0 l
523360 15360 523360 421760 0 l
523360 421760 15360 421760 0 l
15360 421760 15360 15360 0 l
497960 40760 16510 0 c
40760 40760 16510 0 c
40760 396360 16510 0 c
497960 396360 16510 0 c
66160 191382 18796 p
66160 220338 18796 p
294760 231260 16510 p
286505 197605 303015 214115 270.0 b
294760 129660 16510 p
286505 96005 303015 112515 270.0 b
370960 350640 370960 365880 15240 l
396360 350640 396360 365880 15240 l
421760 350640 421760 365880 15240 l
396360 508120 16510 0 c
142360 193160 19812 p
142360 294760 19812 p
396360 193160 18796 p
396360 294760 18796 p
396360 129660 13208 13208 0.0 o
396360 104260 13208 13208 0.0 o
193160 269360 18796 p
193160 218560 18796 p
472560 220338 18796 p
472560 191382 18796 p
163160 397460 19500 p
193160 397460 19500 p
223160 397460 19500 p
163160 344460 19500 p
193160 344460 19500 p
223160 344460 19500 p
421760 320160 421760 358260 10160 l
396360 294760 421760 320160 10160 l
294760 104260 370960 104260 10160 l
370960 104260 396360 78860 10160 l
396360 78860 497960 180460 10160 l
497960 180460 497960 193160 10160 l
497960 193160 472560 218560 10160 l
472560 218560 472560 220338 10160 l
472560 218560 396360 294760 10160 l
472560 218560 472560 220338 10160 l
396360 332860 396360 358260 10160 l
294760 231260 358260 294760 10160 l
358260 294760 396360 332860 10160 l
370960 294760 472560 193160 10160 l
358260 294760 370960 294760 10160 l
472560 193160 472560 191382 10160 l
370960 129660 396360 104260 10160 l
294760 129660 320160 129660 10160 l
320160 129660 370960 129660 10160 l
66160 193160 116960 193160 10160 l
116960 193160 180460 129660 10160 l
180460 129660 294760 129660 10160 l
66160 191382 66160 193160 10160 l
307460 231260 294760 231260 10160 l
320160 218560 307460 231260 10160 l
320160 129660 320160 218560 10160 l
66160 218560 116960 218560 10160 l
116960 218560 142360 193160 10160 l
66160 220338 66160 218560 10160 l
396360 129660 396360 193160 10160 l
332860 358260 370960 358260 10160 l
193160 218560 231260 256660 10160 l
231260 256660 332860 358260 10160 l
243960 256660 294760 205860 10160 l
231260 256660 243960 256660 10160 l
193160 269360 193160 307460 10160 l
193160 307460 231260 345560 10160 l
231260 345560 223160 344460 10160 l
142360 294760 193160 345560 10160 l
193160 345560 193160 344460 10160 l
