%!PS-Adobe-3.0 EPSF-3.0
%%Title: EAGLE Drawing /home/salvix/Dev/vcc_dev/7_seg_board/7_seg_v1.brd
%%Creator: EAGLE
%%Pages: 1
%%BoundingBox: 0 0 102 210
%%EndComments

% Coordinate transfer:

/EU { 254 div 0.072 mul } def
/inch { 72 mul } def

% Linestyle:

1 setlinecap
1 setlinejoin

% Drawing functions:

/l {  % draw a line
   /lw exch def
   /y2 exch def
   /x2 exch def
   /y1 exch def
   /x1 exch def
   newpath
   x1 EU y1 EU moveto
   x2 EU y2 EU lineto
   lw EU setlinewidth
   stroke
   } def

/h {  % draw a hole
   /d  exch def
   /y  exch def
   /x  exch def
   d 0 gt {
     newpath
     x EU y EU d 2 div EU 0 360 arc
     currentgray dup
     1 exch sub setgray
     fill
     setgray
     } if
   } def

/b {  % draw a bar
   /an exch def
   /y2 exch def
   /x2 exch def
   /y1 exch def
   /x1 exch def
   /w2 x2 x1 sub 2 div EU def
   /h2 y2 y1 sub 2 div EU def
   gsave
   x1 x2 add 2 div EU y1 y2 add 2 div EU translate
   an rotate
   newpath
   w2     h2     moveto
   w2 neg h2     lineto
   w2 neg h2 neg lineto
   w2     h2 neg lineto
   closepath
   fill
   grestore
   } def

/c {  % draw a circle
   /lw exch def
   /rd exch def
   /y  exch def
   /x  exch def
   newpath
   lw EU setlinewidth
   x EU y EU rd EU 0 360 arc
   stroke
   } def

/a {  % draw an arc
   /lc exch def
   /ae exch def
   /as exch def
   /lw exch def
   /rd exch def
   /y  exch def
   /x  exch def
   lw rd 2 mul gt {
     /rd rd lw 2 div add 2 div def
     /lw rd 2 mul def
     } if
   currentlinecap currentlinejoin
   lc setlinecap 0 setlinejoin
   newpath
   lw EU setlinewidth
   x EU y EU rd EU as ae arc
   stroke
   setlinejoin setlinecap
   } def

/p {  % draw a pie
   /d exch def
   /y exch def
   /x exch def
   newpath
   x EU y EU d 2 div EU 0 360 arc
   fill
   } def

/edge { 0.20710678119 mul } def

/o {  % draw an octagon
   /an exch def
   /dy exch def
   /dx exch def
   /y  exch def
   /x  exch def
   gsave
   x EU y EU translate
   an dx dy lt { 90 add /dx dy /dy dx def def } if rotate
   newpath
      0 dx 2 div sub EU                    0 dy edge  add EU moveto
      0 dx dy sub 2 div sub dy edge sub EU 0 dy 2 div add EU lineto
      0 dx dy sub 2 div add dy edge add EU 0 dy 2 div add EU lineto
      0 dx 2 div add EU                    0 dy edge  add EU lineto
      0 dx 2 div add EU                    0 dy edge  sub EU lineto
      0 dx dy sub 2 div add dy edge add EU 0 dy 2 div sub EU lineto
      0 dx dy sub 2 div sub dy edge sub EU 0 dy 2 div sub EU lineto
      0 dx 2 div sub EU                    0 dy edge  sub EU lineto
   closepath
   fill
   grestore
   } def

2560 2560 358160 2560 0 l
358160 2560 358160 739160 0 l
358160 739160 2560 739160 0 l
2560 739160 2560 2560 0 l
27960 713760 11000 0 c
307360 53360 18796 p
281960 53360 18796 p
256560 53360 18796 p
231160 53360 18796 p
205760 53360 18796 p
180360 53360 18796 p
154960 53360 18796 p
129560 53360 18796 p
104160 53360 18796 p
78760 53360 18796 p
205760 142260 18796 p
205760 218460 18796 p
104160 650260 18796 p
104160 574060 18796 p
129560 650260 18796 p
129560 574060 18796 p
104160 142260 18796 p
104160 218460 18796 p
129560 142260 18796 p
129560 218460 18796 p
180360 142260 18796 p
180360 218460 18796 p
205760 650260 18796 p
205760 574060 18796 p
180360 650260 18796 p
180360 574060 18796 p
104160 300756 104160 313964 13208 l
129560 300756 129560 313964 13208 l
154960 300756 154960 313964 13208 l
180360 300756 180360 313964 13208 l
205760 300756 205760 313964 13208 l
205760 453156 205760 466364 13208 l
180360 453156 180360 466364 13208 l
154960 453156 154960 466364 13208 l
129560 453156 129560 466364 13208 l
104160 453156 104160 466364 13208 l
104160 459760 104160 574060 5080 l
129560 459760 129560 574060 5080 l
104160 218460 104160 307360 5080 l
129560 218460 129560 307360 5080 l
180360 218460 180360 307360 5080 l
205760 459760 205760 574060 5080 l
180360 459760 180360 574060 5080 l
231160 53360 256560 27960 5080 l
256560 27960 307360 27960 5080 l
307360 27960 332760 53360 5080 l
332760 53360 332760 548660 5080 l
332760 548660 205760 675660 5080 l
205760 675660 129560 675660 5080 l
129560 675660 104160 650260 5080 l
180360 27960 205760 53360 5080 l
78760 27960 180360 27960 5080 l
40660 66060 78760 27960 5080 l
40660 66060 40660 561360 5080 l
40660 561360 129560 650260 5080 l
180360 53360 180360 116860 5080 l
180360 116860 129560 167660 5080 l
129560 167660 104160 142260 5080 l
154960 53360 154960 116860 5080 l
154960 116860 129560 142260 5080 l
129560 53360 78760 104160 5080 l
78760 104160 78760 142260 5080 l
78760 142260 116860 180360 5080 l
116860 180360 142260 180360 5080 l
142260 180360 180360 142260 5080 l
66060 91460 104160 53360 5080 l
66060 91460 66060 561360 5080 l
66060 561360 116860 612160 5080 l
116860 612160 167660 612160 5080 l
167660 612160 205760 650260 5080 l
78760 53360 53360 78760 5080 l
53360 78760 53360 561360 5080 l
53360 561360 116860 624860 5080 l
116860 624860 154960 624860 5080 l
154960 624860 180360 650260 5080 l
256560 53360 256560 91460 5080 l
256560 91460 205760 142260 5080 l
205760 218460 205760 307360 5080 l
281960 53360 307360 53360 5080 l
154960 383560 154960 459760 5080 l
154960 383560 154960 307360 5080 l
281960 53360 281960 256560 5080 l
281960 256560 154960 383560 5080 l
