%!PS-Adobe-3.0 EPSF-3.0
%%Title: EAGLE Drawing /home/salvix/Dev/vcc_dev/7_seg_board/7_seg_v1.brd
%%Creator: EAGLE
%%Pages: 1
%%BoundingBox: 0 0 102 210
%%EndComments

% Coordinate transfer:

/EU { 254 div 0.072 mul } def
/inch { 72 mul } def

% Linestyle:

1 setlinecap
1 setlinejoin

% Drawing functions:

/l {  % draw a line
   /lw exch def
   /y2 exch def
   /x2 exch def
   /y1 exch def
   /x1 exch def
   newpath
   x1 EU y1 EU moveto
   x2 EU y2 EU lineto
   lw EU setlinewidth
   stroke
   } def

/h {  % draw a hole
   /d  exch def
   /y  exch def
   /x  exch def
   d 0 gt {
     newpath
     x EU y EU d 2 div EU 0 360 arc
     currentgray dup
     1 exch sub setgray
     fill
     setgray
     } if
   } def

/b {  % draw a bar
   /an exch def
   /y2 exch def
   /x2 exch def
   /y1 exch def
   /x1 exch def
   /w2 x2 x1 sub 2 div EU def
   /h2 y2 y1 sub 2 div EU def
   gsave
   x1 x2 add 2 div EU y1 y2 add 2 div EU translate
   an rotate
   newpath
   w2     h2     moveto
   w2 neg h2     lineto
   w2 neg h2 neg lineto
   w2     h2 neg lineto
   closepath
   fill
   grestore
   } def

/c {  % draw a circle
   /lw exch def
   /rd exch def
   /y  exch def
   /x  exch def
   newpath
   lw EU setlinewidth
   x EU y EU rd EU 0 360 arc
   stroke
   } def

/a {  % draw an arc
   /lc exch def
   /ae exch def
   /as exch def
   /lw exch def
   /rd exch def
   /y  exch def
   /x  exch def
   lw rd 2 mul gt {
     /rd rd lw 2 div add 2 div def
     /lw rd 2 mul def
     } if
   currentlinecap currentlinejoin
   lc setlinecap 0 setlinejoin
   newpath
   lw EU setlinewidth
   x EU y EU rd EU as ae arc
   stroke
   setlinejoin setlinecap
   } def

/p {  % draw a pie
   /d exch def
   /y exch def
   /x exch def
   newpath
   x EU y EU d 2 div EU 0 360 arc
   fill
   } def

/edge { 0.20710678119 mul } def

/o {  % draw an octagon
   /an exch def
   /dy exch def
   /dx exch def
   /y  exch def
   /x  exch def
   gsave
   x EU y EU translate
   an dx dy lt { 90 add /dx dy /dy dx def def } if rotate
   newpath
      0 dx 2 div sub EU                    0 dy edge  add EU moveto
      0 dx dy sub 2 div sub dy edge sub EU 0 dy 2 div add EU lineto
      0 dx dy sub 2 div add dy edge add EU 0 dy 2 div add EU lineto
      0 dx 2 div add EU                    0 dy edge  add EU lineto
      0 dx 2 div add EU                    0 dy edge  sub EU lineto
      0 dx dy sub 2 div add dy edge add EU 0 dy 2 div sub EU lineto
      0 dx dy sub 2 div sub dy edge sub EU 0 dy 2 div sub EU lineto
      0 dx 2 div sub EU                    0 dy edge  sub EU lineto
   closepath
   fill
   grestore
   } def

358400 2560 2800 2560 0 l
2800 2560 2800 739160 0 l
2800 739160 358400 739160 0 l
358400 739160 358400 2560 0 l
64805 131084 64805 154471 3048 l
64805 154471 58958 154471 3048 l
58958 154471 35570 131084 3048 l
35570 131084 29724 131084 3048 l
29724 201246 29724 218786 3048 l
29724 218786 35570 224633 3048 l
35570 224633 41417 218786 3048 l
41417 218786 41417 207092 3048 l
41417 207092 47264 201246 3048 l
47264 201246 53111 207092 3048 l
53111 207092 53111 224633 3048 l
53111 236327 53111 242173 3048 l
53111 242173 29724 242173 3048 l
29724 236327 29724 248020 3048 l
70652 242173 64805 242173 3048 l
64805 259714 64805 265560 3048 l
64805 265560 29724 265560 3048 l
29724 259714 29724 271407 3048 l
64805 283101 64805 288947 3048 l
64805 288947 29724 288947 3048 l
29724 283101 29724 294794 3048 l
53111 306488 35570 306488 3048 l
35570 306488 29724 312334 3048 l
29724 312334 29724 329875 3048 l
53111 329875 23878 329875 3048 l
23878 329875 18031 324028 3048 l
18031 324028 18031 318181 3048 l
29724 376650 29724 394190 3048 l
29724 394190 35570 400037 3048 l
35570 400037 41417 394190 3048 l
41417 394190 41417 382496 3048 l
41417 382496 47264 376650 3048 l
47264 376650 53111 382496 3048 l
53111 382496 53111 400037 3048 l
29724 429271 29724 417577 3048 l
29724 417577 35570 411731 3048 l
35570 411731 47264 411731 3048 l
47264 411731 53111 417577 3048 l
53111 417577 53111 429271 3048 l
53111 429271 47264 435118 3048 l
47264 435118 41417 435118 3048 l
41417 435118 41417 411731 3048 l
18031 458505 18031 464352 3048 l
18031 464352 23878 470199 3048 l
23878 470199 53111 470199 3048 l
53111 470199 53111 452658 3048 l
53111 452658 47264 446812 3048 l
47264 446812 35570 446812 3048 l
35570 446812 29724 452658 3048 l
29724 452658 29724 470199 3048 l
29724 481893 53111 481893 3048 l
53111 481893 53111 487739 3048 l
53111 487739 47264 493586 3048 l
47264 493586 29724 493586 3048 l
47264 493586 53111 499433 3048 l
53111 499433 47264 505280 3048 l
47264 505280 29724 505280 3048 l
29724 534514 29724 522820 3048 l
29724 522820 35570 516974 3048 l
35570 516974 47264 516974 3048 l
47264 516974 53111 522820 3048 l
53111 522820 53111 534514 3048 l
53111 534514 47264 540361 3048 l
47264 540361 41417 540361 3048 l
41417 540361 41417 516974 3048 l
29724 552055 53111 552055 3048 l
53111 552055 53111 569595 3048 l
53111 569595 47264 575442 3048 l
47264 575442 29724 575442 3048 l
58958 592982 35570 592982 3048 l
35570 592982 29724 598829 3048 l
53111 587136 53111 598829 3048 l
29724 610523 29724 628063 3048 l
29724 628063 35570 633910 3048 l
35570 633910 41417 628063 3048 l
41417 628063 41417 616369 3048 l
41417 616369 47264 610523 3048 l
47264 610523 53111 616369 3048 l
53111 616369 53111 633910 3048 l
286347 31948 280924 31948 1524 l
280924 31948 278212 29236 1524 l
278212 29236 278212 21102 1524 l
278212 21102 286347 21102 1524 l
286347 21102 289058 23813 1524 l
289058 23813 286347 26525 1524 l
286347 26525 278212 26525 1524 l
263658 37371 263658 21102 1524 l
263658 21102 255524 21102 1524 l
255524 21102 252812 23813 1524 l
252812 23813 252812 29236 1524 l
252812 29236 255524 31948 1524 l
255524 31948 263658 31948 1524 l
227412 31948 235547 31948 1524 l
235547 31948 238258 29236 1524 l
238258 29236 238258 23813 1524 l
238258 23813 235547 21102 1524 l
235547 21102 227412 21102 1524 l
199472 37371 199472 21102 1524 l
199472 21102 207607 21102 1524 l
207607 21102 210318 23813 1524 l
210318 23813 210318 29236 1524 l
210318 29236 207607 31948 1524 l
207607 31948 199472 31948 1524 l
176784 21102 182207 21102 1524 l
182207 21102 184918 23813 1524 l
184918 23813 184918 29236 1524 l
184918 29236 182207 31948 1524 l
182207 31948 176784 31948 1524 l
176784 31948 174072 29236 1524 l
174072 29236 174072 26525 1524 l
174072 26525 184918 26525 1524 l
154267 21102 154267 34660 1524 l
154267 34660 151555 37371 1524 l
156978 29236 151555 29236 1524 l
128695 15679 125984 15679 1524 l
125984 15679 123272 18391 1524 l
123272 18391 123272 31948 1524 l
123272 31948 131407 31948 1524 l
131407 31948 134118 29236 1524 l
134118 29236 134118 23813 1524 l
134118 23813 131407 21102 1524 l
131407 21102 123272 21102 1524 l
108718 37371 108718 21102 1524 l
108718 21102 100584 21102 1524 l
100584 21102 97872 23813 1524 l
97872 23813 97872 34660 1524 l
97872 34660 100584 37371 1524 l
100584 37371 108718 37371 1524 l
83318 37371 83318 21102 1524 l
83318 26525 72472 37371 1524 l
80607 29236 72472 21102 1524 l
281438 689122 273304 689122 1524 l
273304 689122 270592 691833 1524 l
270592 691833 273304 694545 1524 l
273304 694545 278727 694545 1524 l
278727 694545 281438 697256 1524 l
281438 697256 278727 699968 1524 l
278727 699968 270592 699968 1524 l
262356 699968 256933 699968 1524 l
256933 699968 254221 697256 1524 l
254221 697256 254221 689122 1524 l
254221 689122 262356 689122 1524 l
262356 689122 265067 691833 1524 l
265067 691833 262356 694545 1524 l
262356 694545 254221 694545 1524 l
248696 705391 245985 705391 1524 l
245985 705391 245985 689122 1524 l
248696 689122 243273 689122 1524 l
237782 699968 232359 689122 1524 l
232359 689122 226936 699968 1524 l
221411 699968 218700 699968 1524 l
218700 699968 218700 689122 1524 l
221411 689122 215988 689122 1524 l
218700 708103 218700 705391 1524 l
210497 699968 199651 689122 1524 l
210497 689122 199651 699968 1524 l
166909 689122 177755 689122 1524 l
177755 689122 166909 699968 1524 l
166909 699968 166909 702680 1524 l
166909 702680 169621 705391 1524 l
169621 705391 175044 705391 1524 l
175044 705391 177755 702680 1524 l
161384 691833 161384 702680 1524 l
161384 702680 158673 705391 1524 l
158673 705391 153250 705391 1524 l
153250 705391 150538 702680 1524 l
150538 702680 150538 691833 1524 l
150538 691833 153250 689122 1524 l
153250 689122 158673 689122 1524 l
158673 689122 161384 691833 1524 l
161384 691833 150538 702680 1524 l
145013 699968 139590 705391 1524 l
139590 705391 139590 689122 1524 l
145013 689122 134167 689122 1524 l
128642 702680 125931 705391 1524 l
125931 705391 120508 705391 1524 l
120508 705391 117796 702680 1524 l
117796 702680 117796 699968 1524 l
117796 699968 120508 697256 1524 l
120508 697256 123219 697256 1524 l
120508 697256 117796 694545 1524 l
117796 694545 117796 691833 1524 l
117796 691833 120508 689122 1524 l
120508 689122 125931 689122 1524 l
125931 689122 128642 691833 1524 l
112271 697256 101425 697256 1524 l
95900 691833 95900 702680 1524 l
95900 702680 93189 705391 1524 l
93189 705391 87766 705391 1524 l
87766 705391 85054 702680 1524 l
85054 702680 85054 691833 1524 l
85054 691833 87766 689122 1524 l
87766 689122 93189 689122 1524 l
93189 689122 95900 691833 1524 l
95900 691833 85054 702680 1524 l
79529 699968 74106 705391 1524 l
74106 705391 74106 689122 1524 l
79529 689122 68683 689122 1524 l
63158 697256 52312 697256 1524 l
46787 699968 41364 705391 1524 l
41364 705391 41364 689122 1524 l
46787 689122 35941 689122 1524 l
30416 702680 27705 705391 1524 l
27705 705391 22282 705391 1524 l
22282 705391 19570 702680 1524 l
19570 702680 19570 699968 1524 l
19570 699968 22282 697256 1524 l
22282 697256 24993 697256 1524 l
22282 697256 19570 694545 1524 l
19570 694545 19570 691833 1524 l
19570 691833 22282 689122 1524 l
22282 689122 27705 689122 1524 l
27705 689122 30416 691833 1524 l
333000 713760 11000 0 c
53600 53360 18796 p
79000 53360 18796 p
104400 53360 18796 p
129800 53360 18796 p
155200 53360 18796 p
180600 53360 18796 p
206000 53360 18796 p
199650 40660 212350 40660 2032 l
212350 40660 218700 47010 2032 l
218700 59710 212350 66060 2032 l
167900 47010 174250 40660 2032 l
174250 40660 186950 40660 2032 l
186950 40660 193300 47010 2032 l
193300 59710 186950 66060 2032 l
186950 66060 174250 66060 2032 l
174250 66060 167900 59710 2032 l
199650 40660 193300 47010 2032 l
193300 59710 199650 66060 2032 l
212350 66060 199650 66060 2032 l
203460 50820 208540 55900 0.0 b
178060 50820 183140 55900 0.0 b
123450 40660 136150 40660 2032 l
136150 40660 142500 47010 2032 l
142500 59710 136150 66060 2032 l
142500 47010 148850 40660 2032 l
148850 40660 161550 40660 2032 l
161550 40660 167900 47010 2032 l
167900 59710 161550 66060 2032 l
161550 66060 148850 66060 2032 l
148850 66060 142500 59710 2032 l
91700 47010 98050 40660 2032 l
98050 40660 110750 40660 2032 l
110750 40660 117100 47010 2032 l
117100 59710 110750 66060 2032 l
110750 66060 98050 66060 2032 l
98050 66060 91700 59710 2032 l
123450 40660 117100 47010 2032 l
117100 59710 123450 66060 2032 l
136150 66060 123450 66060 2032 l
152660 50820 157740 55900 0.0 b
127260 50820 132340 55900 0.0 b
101860 50820 106940 55900 0.0 b
47250 40660 59950 40660 2032 l
59950 40660 66300 47010 2032 l
66300 59710 59950 66060 2032 l
66300 47010 72650 40660 2032 l
72650 40660 85350 40660 2032 l
85350 40660 91700 47010 2032 l
91700 59710 85350 66060 2032 l
85350 66060 72650 66060 2032 l
72650 66060 66300 59710 2032 l
40900 47010 40900 59710 2032 l
47250 40660 40900 47010 2032 l
40900 59710 47250 66060 2032 l
59950 66060 47250 66060 2032 l
76460 50820 81540 55900 0.0 b
51060 50820 56140 55900 0.0 b
231400 53360 18796 p
225050 40660 237750 40660 2032 l
237750 40660 244100 47010 2032 l
244100 59710 237750 66060 2032 l
225050 40660 218700 47010 2032 l
218700 59710 225050 66060 2032 l
237750 66060 225050 66060 2032 l
228860 50820 233940 55900 0.0 b
256800 53360 18796 p
250450 40660 263150 40660 2032 l
263150 40660 269500 47010 2032 l
269500 59710 263150 66060 2032 l
250450 40660 244100 47010 2032 l
244100 59710 250450 66060 2032 l
263150 66060 250450 66060 2032 l
254260 50820 259340 55900 0.0 b
282200 53360 18796 p
275850 40660 288550 40660 2032 l
288550 40660 294900 47010 2032 l
294900 47010 294900 59710 2032 l
294900 59710 288550 66060 2032 l
275850 40660 269500 47010 2032 l
269500 59710 275850 66060 2032 l
288550 66060 275850 66060 2032 l
279660 50820 284740 55900 0.0 b
155200 142260 18796 p
155200 218460 18796 p
162820 154960 162820 205760 2032 l
162820 205760 155200 205760 2032 l
155200 205760 147580 205760 2032 l
147580 205760 147580 154960 2032 l
147580 154960 155200 154960 2032 l
155200 154960 162820 154960 2032 l
155200 205760 155200 208300 2032 l
155200 154960 155200 152420 2032 l
256800 650260 18796 p
256800 574060 18796 p
249180 637560 249180 586760 2032 l
249180 586760 256800 586760 2032 l
256800 586760 264420 586760 2032 l
264420 586760 264420 637560 2032 l
264420 637560 256800 637560 2032 l
256800 637560 249180 637560 2032 l
256800 586760 256800 584220 2032 l
256800 637560 256800 640100 2032 l
231400 650260 18796 p
231400 574060 18796 p
223780 637560 223780 586760 2032 l
223780 586760 231400 586760 2032 l
231400 586760 239020 586760 2032 l
239020 586760 239020 637560 2032 l
239020 637560 231400 637560 2032 l
231400 637560 223780 637560 2032 l
231400 586760 231400 584220 2032 l
231400 637560 231400 640100 2032 l
256800 142260 18796 p
256800 218460 18796 p
264420 154960 264420 205760 2032 l
264420 205760 256800 205760 2032 l
256800 205760 249180 205760 2032 l
249180 205760 249180 154960 2032 l
249180 154960 256800 154960 2032 l
256800 154960 264420 154960 2032 l
256800 205760 256800 208300 2032 l
256800 154960 256800 152420 2032 l
231400 142260 18796 p
231400 218460 18796 p
239020 154960 239020 205760 2032 l
239020 205760 231400 205760 2032 l
231400 205760 223780 205760 2032 l
223780 205760 223780 154960 2032 l
223780 154960 231400 154960 2032 l
231400 154960 239020 154960 2032 l
231400 205760 231400 208300 2032 l
231400 154960 231400 152420 2032 l
180600 142260 18796 p
180600 218460 18796 p
188220 154960 188220 205760 2032 l
188220 205760 180600 205760 2032 l
180600 205760 172980 205760 2032 l
172980 205760 172980 154960 2032 l
172980 154960 180600 154960 2032 l
180600 154960 188220 154960 2032 l
180600 205760 180600 208300 2032 l
180600 154960 180600 152420 2032 l
155200 650260 18796 p
155200 574060 18796 p
147580 637560 147580 586760 2032 l
147580 586760 155200 586760 2032 l
155200 586760 162820 586760 2032 l
162820 586760 162820 637560 2032 l
162820 637560 155200 637560 2032 l
155200 637560 147580 637560 2032 l
155200 586760 155200 584220 2032 l
155200 637560 155200 640100 2032 l
180600 650260 18796 p
180600 574060 18796 p
172980 637560 172980 586760 2032 l
172980 586760 180600 586760 2032 l
180600 586760 188220 586760 2032 l
188220 586760 188220 637560 2032 l
188220 637560 180600 637560 2032 l
180600 637560 172980 637560 2032 l
180600 586760 180600 584220 2032 l
180600 637560 180600 640100 2032 l
256800 300756 256800 313964 13208 l
231400 300756 231400 313964 13208 l
206000 300756 206000 313964 13208 l
180600 300756 180600 313964 13208 l
155200 300756 155200 313964 13208 l
155200 453156 155200 466364 13208 l
180600 453156 180600 466364 13208 l
206000 453156 206000 466364 13208 l
231400 453156 231400 466364 13208 l
256800 453156 256800 466364 13208 l
143770 298470 143770 468650 1524 l
268230 468650 143770 468650 1524 l
268230 468650 268230 298470 1524 l
143770 298470 268230 298470 1524 l
160280 320060 3810 7620 c
161296 320060 159518 320060 3048 l
158502 446298 165360 439440 4064 l
165360 439440 173742 391434 4064 l
173742 391434 168916 386608 4064 l
168916 386608 162820 392704 4064 l
162820 392704 154438 442234 4064 l
154438 442234 158502 446298 4064 l
163074 450870 169424 444520 4064 l
169424 444520 222256 444520 4064 l
222256 444520 229114 451378 4064 l
229114 451378 225812 454680 4064 l
225812 454680 166884 454680 4064 l
166884 454680 163074 450870 4064 l
233686 446806 227336 440456 4064 l
227336 440456 235718 391688 4064 l
235718 391688 241560 385846 4064 l
241560 385846 246386 390672 4064 l
246386 390672 237242 443250 4064 l
237242 443250 233686 446806 4064 l
236734 381020 230384 387370 4064 l
230384 387370 179076 387370 4064 l
179076 387370 173996 382290 4064 l
173996 382290 179076 377210 4064 l
179076 377210 232924 377210 4064 l
232924 377210 236734 381020 4064 l
241560 376194 239020 373654 4064 l
253498 318028 247656 323870 4064 l
247656 323870 239020 373654 4064 l
241560 376194 250450 367304 4064 l
250450 367304 258324 322854 4064 l
258324 322854 253498 318028 4064 l
248672 313202 241814 320060 4064 l
241814 320060 189236 320060 4064 l
189236 320060 182378 313202 4064 l
182378 313202 185680 309900 4064 l
185680 309900 245370 309900 4064 l
245370 309900 248672 313202 4064 l
169170 377718 177552 369336 4064 l
177552 369336 185172 325394 4064 l
185172 325394 177552 317774 4064 l
177552 317774 175520 319806 4064 l
175520 319806 166376 374924 4064 l
166376 374924 169170 377718 4064 l
171202 371876 179584 323616 8128 l
188220 314980 242830 314980 8128 l
252482 324124 243846 370606 8128 l
241306 391942 232670 440710 8128 l
223526 449600 167900 449600 8128 l
160280 441218 168408 392704 8128 l
179330 382290 231146 382290 8128 l
