%!PS-Adobe-3.0 EPSF-3.0
%%Title: EAGLE Drawing /home/salvix/Dev/vcc_dev/5v_power_cheap/5_power_cheap.brd
%%Creator: EAGLE
%%Pages: 1
%%BoundingBox: 0 0 94 76
%%EndComments

% Coordinate transfer:

/EU { 254 div 0.072 mul } def
/inch { 72 mul } def

% Linestyle:

1 setlinecap
1 setlinejoin

% Drawing functions:

/l {  % draw a line
   /lw exch def
   /y2 exch def
   /x2 exch def
   /y1 exch def
   /x1 exch def
   newpath
   x1 EU y1 EU moveto
   x2 EU y2 EU lineto
   lw EU setlinewidth
   stroke
   } def

/h {  % draw a hole
   /d  exch def
   /y  exch def
   /x  exch def
   d 0 gt {
     newpath
     x EU y EU d 2 div EU 0 360 arc
     currentgray dup
     1 exch sub setgray
     fill
     setgray
     } if
   } def

/b {  % draw a bar
   /an exch def
   /y2 exch def
   /x2 exch def
   /y1 exch def
   /x1 exch def
   /w2 x2 x1 sub 2 div EU def
   /h2 y2 y1 sub 2 div EU def
   gsave
   x1 x2 add 2 div EU y1 y2 add 2 div EU translate
   an rotate
   newpath
   w2     h2     moveto
   w2 neg h2     lineto
   w2 neg h2 neg lineto
   w2     h2 neg lineto
   closepath
   fill
   grestore
   } def

/c {  % draw a circle
   /lw exch def
   /rd exch def
   /y  exch def
   /x  exch def
   newpath
   lw EU setlinewidth
   x EU y EU rd EU 0 360 arc
   stroke
   } def

/a {  % draw an arc
   /lc exch def
   /ae exch def
   /as exch def
   /lw exch def
   /rd exch def
   /y  exch def
   /x  exch def
   lw rd 2 mul gt {
     /rd rd lw 2 div add 2 div def
     /lw rd 2 mul def
     } if
   currentlinecap currentlinejoin
   lc setlinecap 0 setlinejoin
   newpath
   lw EU setlinewidth
   x EU y EU rd EU as ae arc
   stroke
   setlinejoin setlinecap
   } def

/p {  % draw a pie
   /d exch def
   /y exch def
   /x exch def
   newpath
   x EU y EU d 2 div EU 0 360 arc
   fill
   } def

/edge { 0.20710678119 mul } def

/o {  % draw an octagon
   /an exch def
   /dy exch def
   /dx exch def
   /y  exch def
   /x  exch def
   gsave
   x EU y EU translate
   an dx dy lt { 90 add /dx dy /dy dx def def } if rotate
   newpath
      0 dx 2 div sub EU                    0 dy edge  add EU moveto
      0 dx dy sub 2 div sub dy edge sub EU 0 dy 2 div add EU lineto
      0 dx dy sub 2 div add dy edge add EU 0 dy 2 div add EU lineto
      0 dx 2 div add EU                    0 dy edge  add EU lineto
      0 dx 2 div add EU                    0 dy edge  sub EU lineto
      0 dx dy sub 2 div add dy edge add EU 0 dy 2 div sub EU lineto
      0 dx dy sub 2 div sub dy edge sub EU 0 dy 2 div sub EU lineto
      0 dx 2 div sub EU                    0 dy edge  sub EU lineto
   closepath
   fill
   grestore
   } def

12544 2560 317344 2560 0 l
317344 2560 317344 256560 0 l
317344 256560 12544 256560 0 l
12544 256560 12544 2560 0 l
82902 29408 77479 34831 1524 l
77479 34831 77479 18562 1524 l
82902 18562 72056 18562 1524 l
66531 32120 63820 34831 1524 l
63820 34831 58397 34831 1524 l
58397 34831 55685 32120 1524 l
55685 32120 55685 29408 1524 l
55685 29408 58397 26696 1524 l
58397 26696 61108 26696 1524 l
58397 26696 55685 23985 1524 l
55685 23985 55685 21273 1524 l
55685 21273 58397 18562 1524 l
58397 18562 63820 18562 1524 l
63820 18562 66531 21273 1524 l
50160 21273 50160 32120 1524 l
50160 32120 47449 34831 1524 l
47449 34831 42026 34831 1524 l
42026 34831 39314 32120 1524 l
39314 32120 39314 21273 1524 l
39314 21273 42026 18562 1524 l
42026 18562 47449 18562 1524 l
47449 18562 50160 21273 1524 l
50160 21273 39314 32120 1524 l
33789 29408 28366 34831 1524 l
28366 34831 28366 18562 1524 l
33789 18562 22943 18562 1524 l
291944 231160 3000 0 c
37944 76982 18796 p
37944 105938 18796 p
291944 105938 18796 p
291944 76982 18796 p
114144 142260 18796 p
114144 66060 18796 p
164944 142260 18796 p
164944 66060 18796 p
215744 66060 18796 p
215744 142260 18796 p
253844 231160 13208 13208 180.0 o
228444 231160 13208 13208 180.0 o
86966 231160 18796 p
114144 231160 18796 p
141322 231160 18796 p
215744 66060 279244 66060 5080 l
279244 66060 291944 78760 5080 l
291944 78760 291944 76982 5080 l
76044 78760 101444 78760 5080 l
37944 78760 76044 78760 5080 l
101444 78760 164944 142260 5080 l
37944 76982 37944 78760 5080 l
190344 66060 215744 66060 5080 l
164944 40660 190344 66060 5080 l
114144 40660 164944 40660 5080 l
76044 78760 114144 40660 5080 l
228444 154960 228444 231160 5080 l
215744 142260 228444 154960 5080 l
37944 105938 37944 154960 5080 l
37944 105938 37944 104160 5080 l
37944 154960 114144 231160 5080 l
37944 105938 37944 104160 5080 l
114144 142260 114144 205760 5080 l
114144 205760 139544 231160 5080 l
139544 231160 141322 231160 5080 l
114144 66060 164944 66060 5080 l
253844 154960 253844 142260 5080 l
253844 154960 253844 231160 5080 l
253844 142260 291944 104160 5080 l
291944 104160 291944 105938 5080 l
164944 66060 253844 154960 5080 l
