%!PS-Adobe-3.0 EPSF-3.0
%%Title: EAGLE Drawing /home/salvix/Dev/vcc_dev/5v_power_cheap/5_power_cheap.brd
%%Creator: EAGLE
%%Pages: 1
%%BoundingBox: 0 0 94 76
%%EndComments

% Coordinate transfer:

/EU { 254 div 0.072 mul } def
/inch { 72 mul } def

% Linestyle:

1 setlinecap
1 setlinejoin

% Drawing functions:

/l {  % draw a line
   /lw exch def
   /y2 exch def
   /x2 exch def
   /y1 exch def
   /x1 exch def
   newpath
   x1 EU y1 EU moveto
   x2 EU y2 EU lineto
   lw EU setlinewidth
   stroke
   } def

/h {  % draw a hole
   /d  exch def
   /y  exch def
   /x  exch def
   d 0 gt {
     newpath
     x EU y EU d 2 div EU 0 360 arc
     currentgray dup
     1 exch sub setgray
     fill
     setgray
     } if
   } def

/b {  % draw a bar
   /an exch def
   /y2 exch def
   /x2 exch def
   /y1 exch def
   /x1 exch def
   /w2 x2 x1 sub 2 div EU def
   /h2 y2 y1 sub 2 div EU def
   gsave
   x1 x2 add 2 div EU y1 y2 add 2 div EU translate
   an rotate
   newpath
   w2     h2     moveto
   w2 neg h2     lineto
   w2 neg h2 neg lineto
   w2     h2 neg lineto
   closepath
   fill
   grestore
   } def

/c {  % draw a circle
   /lw exch def
   /rd exch def
   /y  exch def
   /x  exch def
   newpath
   lw EU setlinewidth
   x EU y EU rd EU 0 360 arc
   stroke
   } def

/a {  % draw an arc
   /lc exch def
   /ae exch def
   /as exch def
   /lw exch def
   /rd exch def
   /y  exch def
   /x  exch def
   lw rd 2 mul gt {
     /rd rd lw 2 div add 2 div def
     /lw rd 2 mul def
     } if
   currentlinecap currentlinejoin
   lc setlinecap 0 setlinejoin
   newpath
   lw EU setlinewidth
   x EU y EU rd EU as ae arc
   stroke
   setlinejoin setlinecap
   } def

/p {  % draw a pie
   /d exch def
   /y exch def
   /x exch def
   newpath
   x EU y EU d 2 div EU 0 360 arc
   fill
   } def

/edge { 0.20710678119 mul } def

/o {  % draw an octagon
   /an exch def
   /dy exch def
   /dx exch def
   /y  exch def
   /x  exch def
   gsave
   x EU y EU translate
   an dx dy lt { 90 add /dx dy /dy dx def def } if rotate
   newpath
      0 dx 2 div sub EU                    0 dy edge  add EU moveto
      0 dx dy sub 2 div sub dy edge sub EU 0 dy 2 div add EU lineto
      0 dx dy sub 2 div add dy edge add EU 0 dy 2 div add EU lineto
      0 dx 2 div add EU                    0 dy edge  add EU lineto
      0 dx 2 div add EU                    0 dy edge  sub EU lineto
      0 dx dy sub 2 div add dy edge add EU 0 dy 2 div sub EU lineto
      0 dx dy sub 2 div sub dy edge sub EU 0 dy 2 div sub EU lineto
      0 dx 2 div sub EU                    0 dy edge  sub EU lineto
   closepath
   fill
   grestore
   } def

317440 2560 12640 2560 0 l
12640 2560 12640 256560 0 l
12640 256560 317440 256560 0 l
317440 256560 317440 2560 0 l
299161 22685 291365 22685 1016 l
291365 22685 287468 26582 1016 l
287468 26582 291365 30480 1016 l
291365 30480 299161 30480 1016 l
295263 34378 295263 36326 1016 l
295263 36326 287468 36326 1016 l
287468 34378 287468 38275 1016 l
301110 36326 299161 36326 1016 l
287468 42173 295263 42173 1016 l
295263 42173 295263 48019 1016 l
295263 48019 293314 49968 1016 l
293314 49968 287468 49968 1016 l
45161 18308 37365 18308 1016 l
37365 18308 33468 22205 1016 l
33468 22205 37365 26103 1016 l
37365 26103 45161 26103 1016 l
33468 31949 33468 35847 1016 l
33468 35847 35416 37796 1016 l
35416 37796 39314 37796 1016 l
39314 37796 41263 35847 1016 l
41263 35847 41263 31949 1016 l
41263 31949 39314 30001 1016 l
39314 30001 35416 30001 1016 l
35416 30001 33468 31949 1016 l
41263 41694 35416 41694 1016 l
35416 41694 33468 43642 1016 l
33468 43642 33468 49489 1016 l
33468 49489 41263 49489 1016 l
43212 55335 35416 55335 1016 l
35416 55335 33468 57284 1016 l
41263 53387 41263 57284 1016 l
208413 23642 200279 23642 1524 l
200279 23642 197567 26353 1524 l
197567 26353 200279 29065 1524 l
200279 29065 205702 29065 1524 l
205702 29065 208413 31776 1524 l
208413 31776 205702 34488 1524 l
205702 34488 197567 34488 1524 l
189331 34488 183908 34488 1524 l
183908 34488 181196 31776 1524 l
181196 31776 181196 23642 1524 l
181196 23642 189331 23642 1524 l
189331 23642 192042 26353 1524 l
192042 26353 189331 29065 1524 l
189331 29065 181196 29065 1524 l
175671 39911 172960 39911 1524 l
172960 39911 172960 23642 1524 l
175671 23642 170248 23642 1524 l
164757 34488 159334 23642 1524 l
159334 23642 153911 34488 1524 l
148386 34488 145675 34488 1524 l
145675 34488 145675 23642 1524 l
148386 23642 142963 23642 1524 l
145675 42623 145675 39911 1524 l
137472 34488 126626 23642 1524 l
137472 23642 126626 34488 1524 l
195889 191968 190466 197391 1524 l
190466 197391 190466 181122 1524 l
195889 181122 185043 181122 1524 l
246689 183833 246689 194680 1524 l
246689 194680 243978 197391 1524 l
243978 197391 238555 197391 1524 l
238555 197391 235843 194680 1524 l
235843 194680 235843 183833 1524 l
235843 183833 238555 181122 1524 l
238555 181122 243978 181122 1524 l
243978 181122 246689 183833 1524 l
246689 183833 235843 194680 1524 l
38040 231160 3000 0 c
292040 76982 18796 p
292040 105938 18796 p
304740 72410 304740 85110 2032 l
304740 85110 298390 91460 2032 l
285690 91460 279340 85110 2032 l
298390 91460 304740 97810 2032 l
304740 97810 304740 110510 2032 l
304740 110510 298390 116860 2032 l
285690 116860 279340 110510 2032 l
279340 110510 279340 97810 2032 l
279340 97810 285690 91460 2032 l
298390 66060 285690 66060 2032 l
304740 72410 298390 66060 2032 l
285690 66060 279340 72410 2032 l
279340 85110 279340 72410 2032 l
289119 75839 294961 81681 90.0 b
298390 116860 285690 116860 2032 l
289119 101239 294961 107081 90.0 b
38040 105938 18796 p
38040 76982 18796 p
25340 110510 25340 97810 2032 l
25340 97810 31690 91460 2032 l
44390 91460 50740 97810 2032 l
31690 91460 25340 85110 2032 l
25340 85110 25340 72410 2032 l
25340 72410 31690 66060 2032 l
44390 66060 50740 72410 2032 l
50740 72410 50740 85110 2032 l
50740 85110 44390 91460 2032 l
31690 116860 44390 116860 2032 l
25340 110510 31690 116860 2032 l
44390 116860 50740 110510 2032 l
50740 97810 50740 110510 2032 l
35119 101239 40961 107081 270.0 b
31690 66060 44390 66060 2032 l
35119 75839 40961 81681 270.0 b
215840 142260 18796 p
215840 66060 18796 p
208220 129560 208220 78760 2032 l
208220 78760 215840 78760 2032 l
215840 78760 223460 78760 2032 l
223460 78760 223460 129560 2032 l
223460 129560 215840 129560 2032 l
215840 129560 208220 129560 2032 l
215840 78760 215840 76220 2032 l
215840 129560 215840 132100 2032 l
165040 142260 18796 p
165040 66060 18796 p
157420 129560 157420 78760 2032 l
157420 78760 165040 78760 2032 l
165040 78760 172660 78760 2032 l
172660 78760 172660 129560 2032 l
172660 129560 165040 129560 2032 l
165040 129560 157420 129560 2032 l
165040 78760 165040 76220 2032 l
165040 129560 165040 132100 2032 l
114240 66060 18796 p
114240 142260 18796 p
121860 78760 121860 129560 2032 l
121860 129560 114240 129560 2032 l
114240 129560 106620 129560 2032 l
106620 129560 106620 78760 2032 l
106620 78760 114240 78760 2032 l
114240 78760 121860 78760 2032 l
114240 129560 114240 132100 2032 l
114240 78760 114240 76220 2032 l
76140 231160 13208 13208 0.0 o
101540 231160 13208 13208 0.0 o
88840 231160 25400 1524 c
114240 250210 114240 212110 2032 l
88840 231160 31750 2540 36.87 323.13 1 a
88840 231160 11430 1524 180.00 270.00 1 a
88840 231160 11430 1524 0.00 90.00 1 a
88840 231160 16510 1524 180.00 270.00 1 a
88840 231160 16510 1524 0.00 90.00 1 a
88840 231160 21590 1524 180.00 270.00 1 a
88840 231160 21590 1524 0.00 90.00 1 a
273990 252910 273990 209410 2032 l
273990 209410 157690 209410 2032 l
157690 209410 157690 252910 2032 l
157690 252910 273990 252910 2032 l
213554 228112 218126 234208 90.0 b
238954 228112 243526 234208 90.0 b
188154 228112 192726 234208 90.0 b
243018 231160 18796 p
215840 231160 18796 p
188662 231160 18796 p
