%!PS-Adobe-3.0 EPSF-3.0
%%Title: EAGLE Drawing /home/salvix/Dev/vcc_dev/5v_power/5v_power.brd
%%Creator: EAGLE
%%Pages: 1
%%BoundingBox: 0 0 153 157
%%EndComments

% Coordinate transfer:

/EU { 254 div 0.072 mul } def
/inch { 72 mul } def

% Linestyle:

1 setlinecap
1 setlinejoin

% Drawing functions:

/l {  % draw a line
   /lw exch def
   /y2 exch def
   /x2 exch def
   /y1 exch def
   /x1 exch def
   newpath
   x1 EU y1 EU moveto
   x2 EU y2 EU lineto
   lw EU setlinewidth
   stroke
   } def

/h {  % draw a hole
   /d  exch def
   /y  exch def
   /x  exch def
   d 0 gt {
     newpath
     x EU y EU d 2 div EU 0 360 arc
     currentgray dup
     1 exch sub setgray
     fill
     setgray
     } if
   } def

/b {  % draw a bar
   /an exch def
   /y2 exch def
   /x2 exch def
   /y1 exch def
   /x1 exch def
   /w2 x2 x1 sub 2 div EU def
   /h2 y2 y1 sub 2 div EU def
   gsave
   x1 x2 add 2 div EU y1 y2 add 2 div EU translate
   an rotate
   newpath
   w2     h2     moveto
   w2 neg h2     lineto
   w2 neg h2 neg lineto
   w2     h2 neg lineto
   closepath
   fill
   grestore
   } def

/c {  % draw a circle
   /lw exch def
   /rd exch def
   /y  exch def
   /x  exch def
   newpath
   lw EU setlinewidth
   x EU y EU rd EU 0 360 arc
   stroke
   } def

/a {  % draw an arc
   /lc exch def
   /ae exch def
   /as exch def
   /lw exch def
   /rd exch def
   /y  exch def
   /x  exch def
   lw rd 2 mul gt {
     /rd rd lw 2 div add 2 div def
     /lw rd 2 mul def
     } if
   currentlinecap currentlinejoin
   lc setlinecap 0 setlinejoin
   newpath
   lw EU setlinewidth
   x EU y EU rd EU as ae arc
   stroke
   setlinejoin setlinecap
   } def

/p {  % draw a pie
   /d exch def
   /y exch def
   /x exch def
   newpath
   x EU y EU d 2 div EU 0 360 arc
   fill
   } def

/edge { 0.20710678119 mul } def

/o {  % draw an octagon
   /an exch def
   /dy exch def
   /dx exch def
   /y  exch def
   /x  exch def
   gsave
   x EU y EU translate
   an dx dy lt { 90 add /dx dy /dy dx def def } if rotate
   newpath
      0 dx 2 div sub EU                    0 dy edge  add EU moveto
      0 dx dy sub 2 div sub dy edge sub EU 0 dy 2 div add EU lineto
      0 dx dy sub 2 div add dy edge add EU 0 dy 2 div add EU lineto
      0 dx 2 div add EU                    0 dy edge  add EU lineto
      0 dx 2 div add EU                    0 dy edge  sub EU lineto
      0 dx dy sub 2 div add dy edge add EU 0 dy 2 div sub EU lineto
      0 dx dy sub 2 div sub dy edge sub EU 0 dy 2 div sub EU lineto
      0 dx 2 div sub EU                    0 dy edge  sub EU lineto
   closepath
   fill
   grestore
   } def

523264 15360 15264 15360 0 l
15264 15360 15264 421760 0 l
15264 421760 523264 421760 0 l
523264 421760 523264 15360 0 l
40664 40760 16510 0 c
497864 40760 16510 0 c
497864 396360 16510 0 c
40664 396360 16510 0 c
435456 41522 446302 41522 1524 l
446302 41522 435456 52368 1524 l
435456 52368 435456 55080 1524 l
435456 55080 438168 57791 1524 l
438168 57791 443591 57791 1524 l
443591 57791 446302 55080 1524 l
429931 44233 429931 55080 1524 l
429931 55080 427220 57791 1524 l
427220 57791 421797 57791 1524 l
421797 57791 419085 55080 1524 l
419085 55080 419085 44233 1524 l
419085 44233 421797 41522 1524 l
421797 41522 427220 41522 1524 l
427220 41522 429931 44233 1524 l
429931 44233 419085 55080 1524 l
413560 52368 408137 57791 1524 l
408137 57791 408137 41522 1524 l
413560 41522 402714 41522 1524 l
386343 41522 397189 41522 1524 l
397189 41522 386343 52368 1524 l
386343 52368 386343 55080 1524 l
386343 55080 389055 57791 1524 l
389055 57791 394478 57791 1524 l
394478 57791 397189 55080 1524 l
496340 93084 496340 128165 3048 l
496340 128165 472953 93084 3048 l
472953 93084 472953 128165 3048 l
443719 93084 455413 93084 3048 l
455413 93084 461259 98930 3048 l
461259 98930 461259 110624 3048 l
461259 110624 455413 116471 3048 l
455413 116471 443719 116471 3048 l
443719 116471 437872 110624 3048 l
437872 110624 437872 104777 3048 l
437872 104777 461259 104777 3048 l
420332 93084 408638 93084 3048 l
408638 93084 402791 98930 3048 l
402791 98930 402791 110624 3048 l
402791 110624 408638 116471 3048 l
408638 116471 420332 116471 3048 l
420332 116471 426178 110624 3048 l
426178 110624 426178 98930 3048 l
426178 98930 420332 93084 3048 l
391097 93084 391097 116471 3048 l
391097 116471 373557 116471 3048 l
373557 116471 367710 110624 3048 l
367710 110624 367710 93084 3048 l
504722 252856 493876 252856 1524 l
499299 258280 499299 247433 1524 l
488351 255568 482928 260991 1524 l
482928 260991 482928 244722 1524 l
488351 244722 477505 244722 1524 l
461134 244722 471980 244722 1524 l
471980 244722 461134 255568 1524 l
461134 255568 461134 258280 1524 l
461134 258280 463846 260991 1524 l
463846 260991 469269 260991 1524 l
469269 260991 471980 258280 1524 l
83082 255396 72236 255396 1524 l
77659 260820 77659 249973 1524 l
55865 263531 66711 263531 1524 l
66711 263531 66711 255396 1524 l
66711 255396 61288 258108 1524 l
61288 258108 58577 258108 1524 l
58577 258108 55865 255396 1524 l
55865 255396 55865 249973 1524 l
55865 249973 58577 247262 1524 l
58577 247262 64000 247262 1524 l
64000 247262 66711 249973 1524 l
75475 141096 75475 135673 1524 l
75475 135673 72764 132962 1524 l
72764 132962 61917 132962 1524 l
61917 132962 59206 135673 1524 l
59206 135673 59206 141096 1524 l
59206 141096 61917 143808 1524 l
61917 143808 72764 143808 1524 l
72764 143808 75475 141096 1524 l
70052 149333 61917 149333 1524 l
61917 149333 59206 152044 1524 l
59206 152044 59206 160179 1524 l
59206 160179 70052 160179 1524 l
72764 168415 61917 168415 1524 l
61917 168415 59206 171127 1524 l
70052 165704 70052 171127 1524 l
468146 148202 468146 153625 1524 l
468146 150913 484415 150913 1524 l
484415 148202 484415 153625 1524 l
468146 159116 478992 159116 1524 l
478992 159116 478992 167250 1524 l
478992 167250 476280 169962 1524 l
476280 169962 468146 169962 1524 l
260895 354733 260895 349310 1524 l
260895 349310 258184 346599 1524 l
258184 346599 247337 346599 1524 l
247337 346599 244626 349310 1524 l
244626 349310 244626 354733 1524 l
244626 354733 247337 357445 1524 l
247337 357445 258184 357445 1524 l
258184 357445 260895 354733 1524 l
244626 362970 255472 362970 1524 l
255472 362970 255472 371104 1524 l
255472 371104 252760 373816 1524 l
252760 373816 244626 373816 1524 l
446315 354456 446315 349033 1524 l
446315 349033 443604 346322 1524 l
443604 346322 432757 346322 1524 l
432757 346322 430046 349033 1524 l
430046 349033 430046 354456 1524 l
430046 354456 432757 357168 1524 l
432757 357168 443604 357168 1524 l
443604 357168 446315 354456 1524 l
430046 365404 443604 365404 1524 l
443604 365404 446315 368116 1524 l
438180 362693 438180 368116 1524 l
430046 376318 443604 376318 1524 l
443604 376318 446315 379030 1524 l
438180 373607 438180 379030 1524 l
472464 191382 18796 p
472464 220338 18796 p
485164 186810 485164 199510 2032 l
485164 199510 478814 205860 2032 l
466114 205860 459764 199510 2032 l
478814 205860 485164 212210 2032 l
485164 212210 485164 224910 2032 l
485164 224910 478814 231260 2032 l
466114 231260 459764 224910 2032 l
459764 224910 459764 212210 2032 l
459764 212210 466114 205860 2032 l
478814 180460 466114 180460 2032 l
485164 186810 478814 180460 2032 l
466114 180460 459764 186810 2032 l
459764 199510 459764 186810 2032 l
469543 190239 475385 196081 90.0 b
478814 231260 466114 231260 2032 l
469543 215639 475385 221481 90.0 b
243864 231260 16510 p
235609 197605 252119 214115 270.0 b
231164 224910 231164 237610 2032 l
243864 218560 32500 2032 c
243864 129660 16510 p
235609 96005 252119 112515 270.0 b
231164 123310 231164 136010 2032 l
243864 116960 32500 2032 c
167664 350640 167664 365880 15240 l
142264 350640 142264 365880 15240 l
116864 350640 116864 365880 15240 l
194334 383660 90194 383660 1524 l
90194 542410 194334 542410 1524 l
90194 383660 90194 508120 1524 l
90194 508120 99084 508120 1524 l
99084 508120 99084 523360 1524 l
99084 523360 90194 523360 1524 l
90194 523360 90194 542410 1524 l
194334 383660 194334 508120 1524 l
194334 508120 185444 508120 1524 l
185444 508120 185444 523360 1524 l
185444 523360 194334 523360 1524 l
194334 523360 194334 542410 1524 l
142264 508120 18034 1524 c
142264 508120 16510 0 c
187984 390010 96544 390010 508 l
96544 472560 96544 390010 508 l
96544 472560 187984 472560 508 l
187984 390010 187984 472560 508 l
186206 475608 186206 481539 1016 l
186206 481539 183241 484505 1016 l
183241 484505 180275 481539 1016 l
180275 481539 180275 475608 1016 l
186206 480056 180275 480056 1016 l
177085 481539 174120 484505 1016 l
174120 484505 174120 475608 1016 l
177085 475608 171154 475608 1016 l
162033 484505 167964 484505 1016 l
167964 484505 167964 480056 1016 l
167964 480056 164999 481539 1016 l
164999 481539 163516 481539 1016 l
163516 481539 162033 480056 1016 l
162033 480056 162033 477090 1016 l
162033 477090 163516 475608 1016 l
163516 475608 166482 475608 1016 l
166482 475608 167964 477090 1016 l
158843 472643 155878 475608 1016 l
155878 475608 155878 477090 1016 l
155878 477090 157361 477090 1016 l
157361 477090 157361 475608 1016 l
157361 475608 155878 475608 1016 l
146832 475608 152763 475608 1016 l
152763 475608 146832 481539 1016 l
146832 481539 146832 483022 1016 l
146832 483022 148315 484505 1016 l
148315 484505 151281 484505 1016 l
151281 484505 152763 483022 1016 l
143642 475608 143642 481539 1016 l
143642 481539 142160 481539 1016 l
142160 481539 140677 480056 1016 l
140677 480056 140677 475608 1016 l
140677 480056 139194 481539 1016 l
139194 481539 137711 480056 1016 l
137711 480056 137711 475608 1016 l
134521 475608 134521 481539 1016 l
134521 481539 133039 481539 1016 l
133039 481539 131556 480056 1016 l
131556 480056 131556 475608 1016 l
131556 480056 130073 481539 1016 l
130073 481539 128590 480056 1016 l
128590 480056 128590 475608 1016 l
146709 402714 139083 402714 1270 l
110514 374770 123214 383660 180.0 b
110514 358260 123214 374770 180.0 b
135914 374770 148614 383660 180.0 b
161314 374770 174014 383660 180.0 b
135914 358260 148614 374770 180.0 b
161314 358260 174014 374770 180.0 b
172109 396995 168296 396995 1270 l
170203 396995 170203 408434 1270 l
172109 408434 168296 408434 1270 l
115590 408434 119403 408434 1270 l
119403 408434 121309 406528 1270 l
121309 406528 121309 398901 1270 l
121309 398901 119403 396995 1270 l
119403 396995 115590 396995 1270 l
115590 396995 113683 398901 1270 l
113683 398901 113683 406528 1270 l
113683 406528 115590 408434 1270 l
396264 193160 19812 p
396264 294760 19812 p
408964 275710 408964 263010 2540 l
408964 263010 408964 212210 2540 l
408964 212210 396264 212210 2540 l
396264 212210 383564 212210 2540 l
383564 212210 383564 263010 2540 l
383564 263010 383564 275710 2540 l
383564 275710 396264 275710 2540 l
396264 275710 408964 275710 2540 l
408964 263010 383564 263010 2540 l
396264 212210 396264 205860 2540 l
396264 275710 396264 282060 2540 l
397750 215385 400716 218350 1270 l
400716 218350 391819 218350 1270 l
391819 215385 391819 221316 1270 l
391819 224740 400716 224740 1270 l
400716 224740 391819 230671 1270 l
391819 230671 400716 230671 1270 l
391819 238543 400716 238543 1270 l
400716 238543 396267 234095 1270 l
396267 234095 396267 240026 1270 l
393301 243450 399233 243450 1270 l
399233 243450 400716 244932 1270 l
400716 244932 400716 247898 1270 l
400716 247898 399233 249381 1270 l
399233 249381 393301 249381 1270 l
393301 249381 391819 247898 1270 l
391819 247898 391819 244932 1270 l
391819 244932 393301 243450 1270 l
393301 243450 399233 249381 1270 l
393301 252805 399233 252805 1270 l
399233 252805 400716 254287 1270 l
400716 254287 400716 257253 1270 l
400716 257253 399233 258736 1270 l
399233 258736 393301 258736 1270 l
393301 258736 391819 257253 1270 l
391819 257253 391819 254287 1270 l
391819 254287 393301 252805 1270 l
393301 252805 399233 258736 1270 l
397750 262160 400716 265125 1270 l
400716 265125 391819 265125 1270 l
391819 262160 391819 268091 1270 l
142264 193160 18796 p
142264 294760 18796 p
139089 225166 145952 225166 1270 l
145952 225166 142520 221735 1270 l
142520 221735 142520 226310 1270 l
145952 229219 145952 233794 1270 l
145952 233794 144808 233794 1270 l
144808 233794 140232 229219 1270 l
140232 229219 139089 229219 1270 l
140232 236703 144808 236703 1270 l
144808 236703 145952 237846 1270 l
145952 237846 145952 240134 1270 l
145952 240134 144808 241278 1270 l
144808 241278 140232 241278 1270 l
140232 241278 139089 240134 1270 l
139089 240134 139089 237846 1270 l
139089 237846 140232 236703 1270 l
140232 236703 144808 241278 1270 l
130264 212460 154264 212460 2032 l
154264 212460 154264 275460 2032 l
154264 275460 130264 275460 2032 l
130264 275460 130264 212460 2032 l
142264 129660 13208 13208 0.0 o
142264 104260 13208 13208 0.0 o
142264 116960 25400 1524 c
161314 91560 123214 91560 2032 l
142264 116960 31750 2540 306.87 593.13 1 a
142264 116960 11430 1524 90.00 180.00 1 a
142264 116960 11430 1524 270.00 360.00 1 a
142264 116960 16510 1524 90.00 180.00 1 a
142264 116960 16510 1524 270.00 360.00 1 a
142264 116960 21590 1524 90.00 180.00 1 a
142264 116960 21590 1524 270.00 360.00 1 a
345464 269360 18796 p
345464 218560 18796 p
330224 282060 330224 205860 2032 l
330224 205860 360704 205860 2032 l
360704 205860 360704 282060 2032 l
360704 282060 330224 282060 2032 l
66064 220338 18796 p
66064 191382 18796 p
53364 224910 53364 212210 2032 l
53364 212210 59714 205860 2032 l
72414 205860 78764 212210 2032 l
59714 205860 53364 199510 2032 l
53364 199510 53364 186810 2032 l
53364 186810 59714 180460 2032 l
72414 180460 78764 186810 2032 l
78764 186810 78764 199510 2032 l
78764 199510 72414 205860 2032 l
59714 231260 72414 231260 2032 l
53364 224910 59714 231260 2032 l
72414 231260 78764 224910 2032 l
78764 212210 78764 224910 2032 l
63143 215639 68985 221481 270.0 b
59714 180460 72414 180460 2032 l
63143 190239 68985 196081 270.0 b
307174 380295 320254 393375 0.0 b
338924 380295 352004 393375 0.0 b
370674 380295 383754 393375 0.0 b
370674 348545 383754 361625 0.0 b
338924 348545 352004 361625 0.0 b
307174 348545 320254 361625 0.0 b
408964 415410 408964 326510 1270 l
408964 326510 281964 326510 1270 l
281964 326510 281964 415410 1270 l
281964 415410 408964 415410 1270 l
