%!PS-Adobe-3.0 EPSF-3.0
%%Title: EAGLE Drawing /home/salvix/Dev/vcc_dev/5v_power/5v_power.brd
%%Creator: EAGLE
%%Pages: 1
%%BoundingBox: 0 0 153 157
%%EndComments

% Coordinate transfer:

/EU { 254 div 0.072 mul } def
/inch { 72 mul } def

% Linestyle:

1 setlinecap
1 setlinejoin

% Drawing functions:

/l {  % draw a line
   /lw exch def
   /y2 exch def
   /x2 exch def
   /y1 exch def
   /x1 exch def
   newpath
   x1 EU y1 EU moveto
   x2 EU y2 EU lineto
   lw EU setlinewidth
   stroke
   } def

/h {  % draw a hole
   /d  exch def
   /y  exch def
   /x  exch def
   d 0 gt {
     newpath
     x EU y EU d 2 div EU 0 360 arc
     currentgray dup
     1 exch sub setgray
     fill
     setgray
     } if
   } def

/b {  % draw a bar
   /an exch def
   /y2 exch def
   /x2 exch def
   /y1 exch def
   /x1 exch def
   /w2 x2 x1 sub 2 div EU def
   /h2 y2 y1 sub 2 div EU def
   gsave
   x1 x2 add 2 div EU y1 y2 add 2 div EU translate
   an rotate
   newpath
   w2     h2     moveto
   w2 neg h2     lineto
   w2 neg h2 neg lineto
   w2     h2 neg lineto
   closepath
   fill
   grestore
   } def

/c {  % draw a circle
   /lw exch def
   /rd exch def
   /y  exch def
   /x  exch def
   newpath
   lw EU setlinewidth
   x EU y EU rd EU 0 360 arc
   stroke
   } def

/a {  % draw an arc
   /lc exch def
   /ae exch def
   /as exch def
   /lw exch def
   /rd exch def
   /y  exch def
   /x  exch def
   lw rd 2 mul gt {
     /rd rd lw 2 div add 2 div def
     /lw rd 2 mul def
     } if
   currentlinecap currentlinejoin
   lc setlinecap 0 setlinejoin
   newpath
   lw EU setlinewidth
   x EU y EU rd EU as ae arc
   stroke
   setlinejoin setlinecap
   } def

/p {  % draw a pie
   /d exch def
   /y exch def
   /x exch def
   newpath
   x EU y EU d 2 div EU 0 360 arc
   fill
   } def

/edge { 0.20710678119 mul } def

/o {  % draw an octagon
   /an exch def
   /dy exch def
   /dx exch def
   /y  exch def
   /x  exch def
   gsave
   x EU y EU translate
   an dx dy lt { 90 add /dx dy /dy dx def def } if rotate
   newpath
      0 dx 2 div sub EU                    0 dy edge  add EU moveto
      0 dx dy sub 2 div sub dy edge sub EU 0 dy 2 div add EU lineto
      0 dx dy sub 2 div add dy edge add EU 0 dy 2 div add EU lineto
      0 dx 2 div add EU                    0 dy edge  add EU lineto
      0 dx 2 div add EU                    0 dy edge  sub EU lineto
      0 dx dy sub 2 div add dy edge add EU 0 dy 2 div sub EU lineto
      0 dx dy sub 2 div sub dy edge sub EU 0 dy 2 div sub EU lineto
      0 dx 2 div sub EU                    0 dy edge  sub EU lineto
   closepath
   fill
   grestore
   } def

15360 15360 523360 15360 0 l
523360 15360 523360 421760 0 l
523360 421760 15360 421760 0 l
15360 421760 15360 15360 0 l
497960 40760 16510 0 c
40760 40760 16510 0 c
40760 396360 16510 0 c
497960 396360 16510 0 c
395598 41522 387464 41522 1524 l
387464 41522 384752 44233 1524 l
384752 44233 387464 46945 1524 l
387464 46945 392887 46945 1524 l
392887 46945 395598 49656 1524 l
395598 49656 392887 52368 1524 l
392887 52368 384752 52368 1524 l
379227 57791 379227 41522 1524 l
379227 41522 371093 41522 1524 l
371093 41522 368381 44233 1524 l
368381 44233 368381 49656 1524 l
368381 49656 371093 52368 1524 l
371093 52368 379227 52368 1524 l
362856 38811 352010 38811 1524 l
346485 41522 338351 41522 1524 l
338351 41522 335639 44233 1524 l
335639 44233 338351 46945 1524 l
338351 46945 343774 46945 1524 l
343774 46945 346485 49656 1524 l
346485 49656 343774 52368 1524 l
343774 52368 335639 52368 1524 l
330114 52368 330114 44233 1524 l
330114 44233 327403 41522 1524 l
327403 41522 319268 41522 1524 l
319268 41522 319268 52368 1524 l
313743 36099 313743 52368 1524 l
313743 52368 305609 52368 1524 l
305609 52368 302897 49656 1524 l
302897 49656 302897 44233 1524 l
302897 44233 305609 41522 1524 l
305609 41522 313743 41522 1524 l
297372 36099 297372 52368 1524 l
297372 52368 289238 52368 1524 l
289238 52368 286526 49656 1524 l
286526 49656 286526 44233 1524 l
286526 44233 289238 41522 1524 l
289238 41522 297372 41522 1524 l
281001 57791 278290 57791 1524 l
278290 57791 278290 41522 1524 l
281001 41522 275578 41522 1524 l
270087 52368 270087 44233 1524 l
270087 44233 267376 41522 1524 l
267376 41522 259241 41522 1524 l
259241 52368 259241 38811 1524 l
259241 38811 261953 36099 1524 l
261953 36099 264664 36099 1524 l
253716 38811 242870 38811 1524 l
237345 52368 231922 57791 1524 l
231922 57791 231922 41522 1524 l
237345 41522 226499 41522 1524 l
220974 55080 218263 57791 1524 l
218263 57791 212840 57791 1524 l
212840 57791 210128 55080 1524 l
210128 55080 210128 52368 1524 l
210128 52368 212840 49656 1524 l
212840 49656 215551 49656 1524 l
212840 49656 210128 46945 1524 l
210128 46945 210128 44233 1524 l
210128 44233 212840 41522 1524 l
212840 41522 218263 41522 1524 l
218263 41522 220974 44233 1524 l
204603 44233 204603 55080 1524 l
204603 55080 201892 57791 1524 l
201892 57791 196469 57791 1524 l
196469 57791 193757 55080 1524 l
193757 55080 193757 44233 1524 l
193757 44233 196469 41522 1524 l
196469 41522 201892 41522 1524 l
201892 41522 204603 44233 1524 l
204603 44233 193757 55080 1524 l
177386 41522 188232 41522 1524 l
188232 41522 177386 52368 1524 l
177386 52368 177386 55080 1524 l
177386 55080 180098 57791 1524 l
180098 57791 185521 57791 1524 l
185521 57791 188232 55080 1524 l
66160 191382 18796 p
66160 220338 18796 p
294760 231260 16510 p
286505 197605 303015 214115 270.0 b
294760 129660 16510 p
286505 96005 303015 112515 270.0 b
370960 350640 370960 365880 15240 l
396360 350640 396360 365880 15240 l
421760 350640 421760 365880 15240 l
396360 508120 16510 0 c
142360 193160 19812 p
142360 294760 19812 p
396360 193160 18796 p
396360 294760 18796 p
396360 129660 13208 13208 0.0 o
396360 104260 13208 13208 0.0 o
193160 269360 18796 p
193160 218560 18796 p
472560 220338 18796 p
472560 191382 18796 p
218370 380295 231450 393375 180.0 b
186620 380295 199700 393375 180.0 b
154870 380295 167950 393375 180.0 b
154870 348545 167950 361625 180.0 b
186620 348545 199700 361625 180.0 b
218370 348545 231450 361625 180.0 b
129660 355085 129660 386835 10160 l
256660 355085 256660 386835 10160 l
421760 320160 421760 358260 10160 l
396360 294760 421760 320160 10160 l
294760 104260 370960 104260 10160 l
370960 104260 396360 78860 10160 l
396360 78860 497960 180460 10160 l
497960 180460 497960 193160 10160 l
497960 193160 472560 218560 10160 l
472560 218560 472560 220338 10160 l
472560 218560 396360 294760 10160 l
472560 218560 472560 220338 10160 l
396360 332860 396360 358260 10160 l
294760 231260 358260 294760 10160 l
358260 294760 396360 332860 10160 l
370960 294760 472560 193160 10160 l
358260 294760 370960 294760 10160 l
472560 193160 472560 191382 10160 l
370960 129660 396360 104260 10160 l
294760 129660 320160 129660 10160 l
320160 129660 370960 129660 10160 l
66160 193160 116960 193160 10160 l
116960 193160 180460 129660 10160 l
180460 129660 294760 129660 10160 l
66160 191382 66160 193160 10160 l
307460 231260 294760 231260 10160 l
320160 218560 307460 231260 10160 l
320160 129660 320160 218560 10160 l
66160 218560 116960 218560 10160 l
116960 218560 142360 193160 10160 l
66160 220338 66160 218560 10160 l
396360 129660 396360 193160 10160 l
332860 358260 370960 358260 10160 l
193160 218560 231260 256660 10160 l
231260 256660 332860 358260 10160 l
243960 256660 294760 205860 10160 l
231260 256660 243960 256660 10160 l
218560 294760 218560 358260 10160 l
193160 269360 218560 294760 10160 l
218560 358260 224910 355085 10160 l
142360 307460 193160 358260 10160 l
142360 294760 142360 307460 10160 l
193160 358260 193160 355085 10160 l
